%YAML 1.1
%TAG !u! tag:unity3d.com,2011:
--- !u!114 &11400000
MonoBehaviour:
  m_ObjectHideFlags: 0
  m_CorrespondingSourceObject: {fileID: 0}
  m_PrefabInstance: {fileID: 0}
  m_PrefabAsset: {fileID: 0}
  m_GameObject: {fileID: 0}
  m_Enabled: 1
  m_EditorHideFlags: 0
  m_Script: {fileID: 11500000, guid: 9a945ad8713e79e488d64af40d7ef1c2, type: 3}
  m_Name: MovementSound
  m_EditorClassIdentifier: 
  soundFile: {fileID: 8300000, guid: 3a853b21544470441993481b2f4bfe2d, type: 3}
  volume: 0.3
